{
	"sections":[
			{
			"name":"accessi",
			"url":"https://mbi.tim.it/easymonitorbi/accesses",
			"tabs":[{
					"name":"today"
				},
				{
					"name":"thisweek"
				}
				]
			
			
			},
			{
			"name":"accessi",
			"url":"https://mbi.tim.it/easymonitorbi/newline",
			"tabs":[{
					"name":"today"
				},
				{
					"name":"thisweek"
				}
				]
			
			
			}
			]
}
