{  
   "sections":[  
      {  
         "name":"accessi",
         "icon":"md-eye",
         "url":"http://timbusinesskpi.azurewebsites.net/mbi/easymonitorbi/accesses",
         "tabs":[  
            {  
               "name":"today"
            },
            {  
               "name":"thisweek"
            },
            {  
               "name":"lastweek"
            },
            {  
               "name":"thismonth"
            }
         ],
         "trends":[  
            {  
               "description":"evoluzione degli accessi al web a partire da gennaio",
               "url":"http://timbusinesskpi.azurewebsites.net/risorse/trend/accessi?selector=web",
               "name":"web"
            },
            {  
               "description":"evoluzione degli accessi all'app a partire da gennaio",
               "url":"http://timbusinesskpi.azurewebsites.net/risorse/trend/accessi?selector=app",
               "name":"app"
            }
         ]
      },
      {  
         "name":"ricariche",
         "icon":"md-card",
         "url":"http://timbusinesskpi.azurewebsites.net/mbi/easymonitorbi/recharge",
         "tabs":[  
            {  
               "name":"today"
            },
            {  
               "name":"thisweek"
            },
            {  
               "name":"lastweek"
            },
            {  
               "name":"thismonth"
            }
         ],
         "trends":[  
            {  
               "description":"evoluzione delle ricariche a partire da gennaio",
               "url":"http://timbusinesskpi.azurewebsites.net/risorse/trend/ricariche?selector=web",
               "name":"web"
            },
			{  
               "description":"evoluzione delle ricariche a partire da gennaio",
               "url":"http://timbusinesskpi.azurewebsites.net/risorse/trend/ricariche?selector=app",
               "name":"app"
            },
			{  
               "description":"evoluzione delle ricariche a partire da gennaio",
               "url":"http://timbusinesskpi.azurewebsites.net/risorse/trend/ricariche?selector=sms",
               "name":"sms"
            }
         ]
      },
      {  
         "name":"acquisizioni",
         "url":"http://timbusinesskpi.azurewebsites.net/mbi/easymonitorbi/newline",
         "icon":"ios-cart-outline",
         "tabs":[  
            {  
               "name":"today"
            },
            {  
               "name":"thisweek"
            },
            {  
               "name":"lastweek"
            },
            {  
               "name":"thismonth"
            }
         ],
         "trends":[  
            {  
               "description":"evoluzione dei nuovi impianti a partire da gennaio",
               "url":"http://timbusinesskpi.azurewebsites.net/risorse/trend/acquisizioni?selector=nip",
               "name":"nip"
            },
            {  
               "description":"evoluzione delle nuove linee mobili a partire da gennaio",
               "url":"http://timbusinesskpi.azurewebsites.net/risorse/trend/acquisizioni?selector=al",
               "name":"Al"
            },
            {  
               "description":"evoluzione delle number portability a partire da gennaio",
               "url":"http://timbusinesskpi.azurewebsites.net/risorse/trend/acquisizioni?selector=mnp",
               "name":"mnp"
            }
         ]
      },
      {  
         "name":"registrazioni",
         "url":"http://timbusinesskpi.azurewebsites.net/mbi/easymonitorbi/registrations",
         "icon":"ios-done-all-outline",
         "tabs":[  
            {  
               "name":"today"
            },
            {  
               "name":"thisweek"
            },
            {  
               "name":"lastweek"
            },
            {  
               "name":"thismonth"
            }
         ]
      }
   ]
}